[gd_scene load_steps=3 format=3 uid="uid://cf4bsx3qimde"]

[ext_resource type="PackedScene" uid="uid://dj3w5htwyakpl" path="res://scenes/Global/NoHeaderTemplate.tscn" id="1_m0q3g"]

[sub_resource type="GDScript" id="GDScript_t21sr"]
resource_name = "BackupBluetoothCheck"
script/source = "extends VBoxContainer


# Called when the node enters the scene tree for the first time.
func _ready() -> void:
    while PM.submodules_ready == false:
        await get_tree().process_frame
    PM.SD.connect(PM.SD.mon_(\"fi_bluetooth_status\"), 
        Callable(self, \"check_if_enabled\")
    )


# Called every frame. 'delta' is the elapsed time since the previous frame.
func _process(delta: float) -> void:
    pass

func check_if_enabled(enabled):
    print(\"Enabled = \", enabled)
    if enabled == 1:  # 1 == On
        get_parent().goto_scene(\"res://scenes/Global/NoHeaderTemplate.tscn\")


func _on_exit_pressed() -> void:
    get_tree().quit()
"

[node name="MarginContainer" instance=ExtResource("1_m0q3g")]

[node name="VBoxContainer" parent="." index="0"]
script = SubResource("GDScript_t21sr")

[node name="TitleLabel" parent="VBoxContainer/VBoxContainer2/VBoxContainer" index="0"]
text = "Bluetooth Error"

[node name="TextLabel" parent="VBoxContainer/VBoxContainer2/HBoxContainer" index="0"]
text = "FreecoiL was unable to initialize Bluetooth on your device. Or your device is reporting that it does not support Bluetooth.
Bluetooth can be fussy.
If your bluetooth shows as on, but you still see this message, please restart your device and try again, because the bluetooth stack sometimes gets stuck and needs a complete restart."

[node name="ContinueHostOnly" type="Button" parent="VBoxContainer" index="2"]
layout_mode = 2
text = "Continue as Host Only"

[node name="Exit" type="Button" parent="VBoxContainer" index="3"]
layout_mode = 2
text = "Exit FREECOIL"

[connection signal="pressed" from="VBoxContainer/Exit" to="VBoxContainer" method="_on_exit_pressed" flags=3]

[editable path="VBoxContainer/VBoxContainer2/VBoxContainer"]
