[gd_scene load_steps=2 format=3 uid="uid://clwr4fdchjto2"]

[ext_resource type="PackedScene" uid="uid://dj3w5htwyakpl" path="res://scenes/Global/NoHeaderTemplate.tscn" id="1_ky0xf"]

[node name="MarginContainer" instance=ExtResource("1_ky0xf")]

[node name="TitleLabel" parent="VBoxContainer/VBoxContainer2/VBoxContainer" index="0"]
text = "Client Failure"

[node name="TextLabel" parent="VBoxContainer/VBoxContainer2/HBoxContainer" index="0"]
text = "While attempting to create a new client an error has been encountered."

[editable path="VBoxContainer/VBoxContainer2/VBoxContainer"]
