[gd_scene load_steps=3 format=3 uid="uid://c2qs7myd58m2d"]

[ext_resource type="Texture2D" uid="uid://cwoaf2yr21iuk" path="res://assets/images/Sprites/boot_splash.png" id="1_14dbq"]

[sub_resource type="GDScript" id="GDScript_nscce"]
resource_name = "StartVariables"
script/source = "extends PanelContainer

@export_file(\"*.tscn\") var entry_point_scene = \"\"
# Major.Minor.Micro-alpha, beta, rc, preview, dev
@export var VERSION: String = \"0.1.0-dev0\"
@export var VERSION_INT: int = 1  # Increment any time the micro changes.
@export var update_boot_image: bool = false
@export_group(\"Testing & Debugging\")
@export var fake_os: String = \"\" # (String, \"Android\")
@export var fake_unique_id: String = \"\" # (String, \"FAKED8UNIQUE8ID8NOT8REAL8AT8ALL\")
@export var erase_user_dir: bool = false
@export var run_unit_tests: bool = false
@export var run_specified_test: bool = false
@export var artificial_delay_between_states: float = 0
@export_enum(\"not_set\", \"debug\", \"info\", \"warning\", \"error\", \"critical\", 
    \"testing\") var debug_level: int = 3

@export_group(\"Networking\")
@export var Networking_same_IP_host_OK: bool = false
@export var Networking_use_same_game_name: bool = true
@export var Networking_use_this_game_name: String = \"\"
"

[node name="PostSplashSpeed" type="PanelContainer"]
anchors_preset = 15
anchor_right = 1.0
anchor_bottom = 1.0
grow_horizontal = 2
grow_vertical = 2
script = SubResource("GDScript_nscce")
entry_point_scene = "res://scenes/Splash/godot_proud.tscn"
VERSION = "0.5.0-dev0"
VERSION_INT = 5
fake_os = "Android"

[node name="TextureRect" type="TextureRect" parent="."]
layout_mode = 2
texture = ExtResource("1_14dbq")
expand_mode = 3
