[gd_scene load_steps=3 format=3 uid="uid://rnhesd506f4d"]

[ext_resource type="Script" path="res://EverGreen/MainSceneClass.gd" id="1_tjba8"]

[sub_resource type="GDScript" id="GDScript_d44e8"]
resource_name = "SetLoadingScreenHint"
script/source = "extends Control


# Called when the node enters the scene tree for the first time.
func _ready() -> void:
    PM.LoadingScreen.hint(\"[center]FreecoiL has been in continuous development since\" +
        \" 2018, with no more than a 10 month break between sprints.[/center]\"
    )
    get_parent().goto_scene(\"res://scenes/MainMenu/InitializeFreecoilKotlin.tscn\")

# Called every frame. 'delta' is the elapsed time since the previous frame.
func _process(delta: float) -> void:
    pass
"

[node name="SetLoadingScreenHint" type="Control"]
layout_mode = 3
anchors_preset = 15
anchor_right = 1.0
anchor_bottom = 1.0
grow_horizontal = 2
grow_vertical = 2
script = ExtResource("1_tjba8")

[node name="Control" type="Control" parent="."]
anchors_preset = 0
offset_right = 40.0
offset_bottom = 40.0
script = SubResource("GDScript_d44e8")
